Course 7 - Regression Models - Week 4 - Notes
…
The dataframes have a duplicate Scoring column, so we convert to a tibble and repair the name. Finally we reduce this list of tibbles into a single tibble.

library(rvest)
read_html('https://afltables.com/afl/teams/melbourne/allgames.html') %>%
    html_nodes(xpath = 'body/center/table') %>%
    html_table(fill = T) %>%
    map(as_tibble, .name_repair = 'universal') %>%
    reduce(full_join) %>%
    dplyr::filter(str_detect(Rnd, 'R\\d+')) -> 
    mfc_games

mfc_games

## # A tibble: 2,334 x 13
##    Rnd   T     Opponent Scoring...4     F Scoring...6     A R     M    
##    <chr> <chr> <chr>    <chr>       <int> <chr>       <int> <chr> <chr>
##  1 R1    H     Port Ad 4.3 6.5 9.    61 2.4 6.8 10    87 L     -26  
##  2 R2    A     Geelong  2.2 3.4 3.    46 6.1 7.4 13   126 L     -80  
##  3 R3    H     Essendon 3.1 10.1 1   112 6.4 8.6 15   130 L     -18  
##  4 R4    A     Sydney   3.2 8.4 12   100 5.4 8.10 9    78 W     22   
##  5 R5    H     St Kilda 3.3 4.5 4.    55 4.1 7.2 12    95 L     -40  
##  6 R6    A     Richmond 4.1 4.2 5.    42 3.1 5.4 7.    85 L     -43  
##  7 R7    H     Hawthorn 2.3 4.5 9.    79 4.5 5.8 7.    74 W     5    
##  8 R8    A     Gold Co 3.2 3.5 5.    61 2.1 3.3 5.    60 W     1    
##  9 R9    A     West Co 3.4 5.8 8.    69 3.2 5.4 7.    85 L     -16  
## 10 R10   H     Greater 1.1 1.3 3.    68 2.5 6.8 12    94 L     -26  
## #  with 2,324 more rows, and 4 more variables: W.D.L <chr>, Venue <chr>,
## #   Crowd <int>, Date <chr>
…
top_bike_route %>%
    count(HOUR, name = 'COUNT') ->
    bike_count

bike_count

## # A tibble: 8,604 x 2
##    HOUR                COUNT
##    <dttm>              <int>
##  1 2018-12-31 00:00:00     3
##  2 2018-12-31 01:00:00     1
##  3 2018-12-31 03:00:00     1
##  4 2018-12-31 04:00:00    15
##  5 2018-12-31 05:00:00    46
##  6 2018-12-31 06:00:00   102
##  7 2018-12-31 07:00:00   137
##  8 2018-12-31 08:00:00   116
##  9 2018-12-31 09:00:00   102
## 10 2018-12-31 10:00:00   105
## #  with 8,594 more rows
…
